{
  "info": {
    "count": 26,
    "pages": 2,
    "next": "https://rickandmortyapi.com/api/character/?page=2&name=rick&status=alive",
    "prev": null
  },
  "results": [
    {
      "id": 1,
      "name": "Rick Sanchez",
      "status": "Alive",
      "species": "Human",
      "type": "",
      "gender": "Male",
      "origin": {
        "name": "Earth",
        "url": "https://rickandmortyapi.com/api/location/1"
      },
      "location": {
        "name": "Earth",
        "url": "https://rickandmortyapi.com/api/location/20"
      },
      "image": "https://rickandmortyapi.com/api/character/avatar/1.jpeg",
      "url": "https://rickandmortyapi.com/api/character/1",
      "created": "2017-11-04T18:48:46.250Z"
    }
  ]
}